[
  {
    "name": "Nike T-shirt",
    "price": 25.99,
    "url": "img/nike_t-shirt-black.jpg",
    "article": "123456",
    "color": "Black"
  },
  {
    "name": "Adidas Shorts",
    "price": 19.99,
    "url": "img/adidas_shorts-blue.jpg",
    "article": "789012",
    "color": "Blue"
  },
  {
    "name": "Puma Sneakers",
    "price": 49.99,
    "url": "img/puma_sneakers-red.jpg",
    "article": "345678",
    "color": "Red"
  },
  {
    "name": "The North Face Backpack",
    "price": 79.99,
    "url": "img/tnf_backpack-black.jpg",
    "article": "901234",
    "color": "Black"
  },
  {
    "name": "Basketball Jersey",
    "price": 29.99,
    "url": "img/basket_jersey-blue.jpg",
    "article": "567890",
    "color": "Blue"
  },
  {
    "name": "Nike Sport Socks",
    "price": 9.99,
    "url": "img/nike_socks-white.jpg",
    "article": "123789",
    "color": "White"
  },
  {
    "name": "Puma Sports Ball",
    "price": 14.99,
    "url": "img/puma_ball-red.jpg",
    "article": "456123",
    "color": "Red"
  },
  {
    "name": "Nike Joggers",
    "price": 39.99,
    "url": "img/nike_joggers-black.jpg",
    "article": "789456",
    "color": "Black"
  },
  {
    "name": "Adidas Hoodie",
    "price": 59.99,
    "url": "img/adidas_hoodie-green.jpg",
    "article": "234567",
    "color": "Green"
  },
  {
    "name": "The North Face Sunglasses",
    "price": 29.99,
    "url": "img/tnf_sunglasses-grey.jpg",
    "article": "890123",
    "color": "Grey"
  }
]
